<?xml version="1.0" encoding="UTF-8"?>
<session version="1.0">
<refactoring comment="Rename resource &apos;EmpWebApp/WebContent/LoginPage.html&apos; to &apos;Login.html&apos;" description="Rename resource &apos;LoginPage.html&apos;" flags="7" id="org.eclipse.ltk.core.refactoring.rename.resource" input="WebContent/LoginPage.html" name="Login.html" stamp="1704354738984" updateReferences="true"/>
</session>