127.0.0.1 - - [05/Jan/2024:10:45:14 +0530] "GET / HTTP/1.1" 404 751
0:0:0:0:0:0:0:1 - - [05/Jan/2024:10:45:15 +0530] "GET /EmpWebApp/Register.html HTTP/1.1" 200 1055
0:0:0:0:0:0:0:1 - - [05/Jan/2024:10:45:15 +0530] "GET /favicon.ico HTTP/1.1" 404 762
0:0:0:0:0:0:0:1 - - [05/Jan/2024:10:46:00 +0530] "POST /EmpWebApp/Register HTTP/1.1" 200 1182
0:0:0:0:0:0:0:1 - - [05/Jan/2024:10:46:00 +0530] "POST /EmpWebApp/Register HTTP/1.1" 200 1182
0:0:0:0:0:0:0:1 - - [05/Jan/2024:10:48:45 +0530] "GET /EmpWebApp/Login.html HTTP/1.1" 304 -
0:0:0:0:0:0:0:1 - - [05/Jan/2024:10:51:23 +0530] "POST /EmpWebApp/Register HTTP/1.1" 200 660
0:0:0:0:0:0:0:1 - - [05/Jan/2024:10:51:43 +0530] "GET /EmpWebApp/LoginServlet?emailId=hemanth%40gmail.com&password=1234 HTTP/1.1" 200 225
0:0:0:0:0:0:0:1 - - [05/Jan/2024:10:53:42 +0530] "GET /EmpWebApp/LoginServlet?emailId=hemanth%40gmail.com&password=1234 HTTP/1.1" 200 225
0:0:0:0:0:0:0:1 - - [05/Jan/2024:10:53:45 +0530] "GET /EmpWebApp/Logout HTTP/1.1" 304 -
0:0:0:0:0:0:0:1 - - [05/Jan/2024:10:54:46 +0530] "GET /EmpWebApp/Logout HTTP/1.1" 200 545
0:0:0:0:0:0:0:1 - - [05/Jan/2024:10:55:08 +0530] "GET /EmpWebApp/Logout HTTP/1.1" 200 562
0:0:0:0:0:0:0:1 - - [05/Jan/2024:10:55:11 +0530] "GET /EmpWebApp/Logout HTTP/1.1" 304 -
0:0:0:0:0:0:0:1 - - [05/Jan/2024:10:55:11 +0530] "GET /EmpWebApp/Logout HTTP/1.1" 304 -
0:0:0:0:0:0:0:1 - - [05/Jan/2024:10:55:11 +0530] "GET /EmpWebApp/Logout HTTP/1.1" 304 -
0:0:0:0:0:0:0:1 - - [05/Jan/2024:10:55:48 +0530] "GET /EmpWebApp/Logout HTTP/1.1" 200 562
0:0:0:0:0:0:0:1 - - [05/Jan/2024:10:55:59 +0530] "GET /EmpWebApp/LoginServlet?emailId=HR&password=HR HTTP/1.1" 200 204
0:0:0:0:0:0:0:1 - - [05/Jan/2024:10:56:01 +0530] "GET /EmpWebApp/Logout HTTP/1.1" 304 -
0:0:0:0:0:0:0:1 - - [05/Jan/2024:10:56:14 +0530] "GET /EmpWebApp/LoginServlet?emailId=hemanth%40gmail.com&password=1234 HTTP/1.1" 200 225
127.0.0.1 - - [05/Jan/2024:12:08:36 +0530] "GET / HTTP/1.1" 404 751
0:0:0:0:0:0:0:1 - - [05/Jan/2024:12:08:37 +0530] "GET /favicon.ico HTTP/1.1" 404 762
0:0:0:0:0:0:0:1 - - [05/Jan/2024:12:08:45 +0530] "GET /EmpWebApp/LoginServlet?emailId=hemanth%40gmail.com&password=1234 HTTP/1.1" 200 225
0:0:0:0:0:0:0:1 - - [05/Jan/2024:12:10:26 +0530] "GET /EmpWebApp/LoginServlet?emailId=hemanth%40gmail.com&password=1234 HTTP/1.1" 200 225
0:0:0:0:0:0:0:1 - - [05/Jan/2024:12:10:29 +0530] "GET /EmpWebApp/LoginServlet?emailId=hemanth%40gmail.com&password=1234 HTTP/1.1" 200 225
0:0:0:0:0:0:0:1 - - [05/Jan/2024:12:14:21 +0530] "GET /EmpWebApp/LoginServlet?emailId=hemanth%40gmail.com&password=1234 HTTP/1.1" 200 225
0:0:0:0:0:0:0:1 - - [05/Jan/2024:12:14:24 +0530] "GET /EmpWebApp/LoginServlet?emailId=hemanth%40gmail.com&password=1234 HTTP/1.1" 200 225
0:0:0:0:0:0:0:1 - - [05/Jan/2024:12:59:37 +0530] "GET /EmpWebApp/LoginServlet?emailId=hemanth%40gmail.com&password=1234 HTTP/1.1" 200 225
0:0:0:0:0:0:0:1 - - [05/Jan/2024:12:59:39 +0530] "GET /EmpWebApp/LoginServlet?emailId=hemanth%40gmail.com&password=1234 HTTP/1.1" 200 225
0:0:0:0:0:0:0:1 - - [05/Jan/2024:12:59:39 +0530] "GET /EmpWebApp/LoginServlet?emailId=hemanth%40gmail.com&password=1234 HTTP/1.1" 200 225
0:0:0:0:0:0:0:1 - - [05/Jan/2024:12:59:39 +0530] "GET /EmpWebApp/LoginServlet?emailId=hemanth%40gmail.com&password=1234 HTTP/1.1" 200 225
0:0:0:0:0:0:0:1 - - [05/Jan/2024:13:10:41 +0530] "GET /EmpWebApp/Logout HTTP/1.1" 200 562
0:0:0:0:0:0:0:1 - - [05/Jan/2024:13:11:13 +0530] "GET /EmpWebApp/LoginServlet?emailId=HR&password=HR HTTP/1.1" 200 306
0:0:0:0:0:0:0:1 - - [05/Jan/2024:13:11:18 +0530] "GET /EmpWebApp/GetAllEmp HTTP/1.1" 200 396
0:0:0:0:0:0:0:1 - - [05/Jan/2024:13:11:20 +0530] "GET /EmpWebApp/GetAllEmp HTTP/1.1" 200 396
0:0:0:0:0:0:0:1 - - [05/Jan/2024:13:11:21 +0530] "GET /EmpWebApp/GetAllEmp HTTP/1.1" 200 396
127.0.0.1 - - [05/Jan/2024:13:17:26 +0530] "GET / HTTP/1.1" 404 751
0:0:0:0:0:0:0:1 - - [05/Jan/2024:13:17:27 +0530] "GET /EmpWebApp/Login.html HTTP/1.1" 200 562
0:0:0:0:0:0:0:1 - - [05/Jan/2024:13:17:29 +0530] "GET /EmpWebApp/LoginServlet?emailId=HR&password=HR HTTP/1.1" 200 306
0:0:0:0:0:0:0:1 - - [05/Jan/2024:13:17:32 +0530] "GET /EmpWebApp/GetAllEmp HTTP/1.1" 200 396
127.0.0.1 - - [05/Jan/2024:13:19:08 +0530] "GET / HTTP/1.1" 404 751
0:0:0:0:0:0:0:1 - - [05/Jan/2024:13:19:10 +0530] "GET /EmpWebApp/LoginServlet?emailId=HR&password=HR HTTP/1.1" 200 306
0:0:0:0:0:0:0:1 - - [05/Jan/2024:13:19:12 +0530] "GET /EmpWebApp/GetAllEmp HTTP/1.1" 200 396
0:0:0:0:0:0:0:1 - - [05/Jan/2024:13:21:23 +0530] "GET /EmpWebApp/GetAllEmp HTTP/1.1" 200 876
127.0.0.1 - - [05/Jan/2024:13:27:07 +0530] "GET / HTTP/1.1" 404 751
0:0:0:0:0:0:0:1 - - [05/Jan/2024:13:27:07 +0530] "GET /EmpWebApp/Login.html HTTP/1.1" 304 -
0:0:0:0:0:0:0:1 - - [05/Jan/2024:13:27:09 +0530] "GET /EmpWebApp/LoginServlet?emailId=HR&password=HR HTTP/1.1" 200 330
0:0:0:0:0:0:0:1 - - [05/Jan/2024:13:27:11 +0530] "GET /EmpWebApp/GetEmpById.html HTTP/1.1" 200 396
0:0:0:0:0:0:0:1 - - [05/Jan/2024:13:27:22 +0530] "POST /EmpWebApp/GetEmpById HTTP/1.1" 500 1396
0:0:0:0:0:0:0:1 - - [05/Jan/2024:13:27:41 +0530] "POST /EmpWebApp/GetEmpById HTTP/1.1" 500 1394
0:0:0:0:0:0:0:1 - - [05/Jan/2024:13:27:58 +0530] "POST /EmpWebApp/GetEmpById HTTP/1.1" 200 585
0:0:0:0:0:0:0:1 - - [05/Jan/2024:13:28:01 +0530] "GET /EmpWebApp/GetEmpById.html HTTP/1.1" 304 -
0:0:0:0:0:0:0:1 - - [05/Jan/2024:13:28:06 +0530] "POST /EmpWebApp/GetEmpById HTTP/1.1" 200 588
0:0:0:0:0:0:0:1 - - [05/Jan/2024:13:28:20 +0530] "POST /EmpWebApp/GetEmpById HTTP/1.1" 200 417
0:0:0:0:0:0:0:1 - - [05/Jan/2024:13:28:22 +0530] "GET /EmpWebApp/GetAllEmps HTTP/1.1" 404 775
0:0:0:0:0:0:0:1 - - [05/Jan/2024:13:28:26 +0530] "GET /EmpWebApp/GetAllEmps HTTP/1.1" 404 775
0:0:0:0:0:0:0:1 - - [05/Jan/2024:13:28:55 +0530] "GET /EmpWebApp/GetAllEmps HTTP/1.1" 404 775
0:0:0:0:0:0:0:1 - - [05/Jan/2024:13:29:00 +0530] "POST /EmpWebApp/GetEmpById HTTP/1.1" 200 416
0:0:0:0:0:0:0:1 - - [05/Jan/2024:13:29:02 +0530] "GET /EmpWebApp/GetAllEmp HTTP/1.1" 200 899
0:0:0:0:0:0:0:1 - - [05/Jan/2024:13:29:03 +0530] "GET /EmpWebApp/GetEmpById.html HTTP/1.1" 304 -
0:0:0:0:0:0:0:1 - - [05/Jan/2024:13:29:11 +0530] "POST /EmpWebApp/GetEmpById HTTP/1.1" 200 584
